{
    "pokemons" : [{
            "id" : 100,
            "title" : "charizard",
            "image" : "https://img.pokemondb.net/artwork/charizard.jpg"
        },
        {
            "id" : 101,
            "title" : "pikachu",
            "image" : "https://img.pokemondb.net/artwork/pikachu.jpg"
        },
        {
            "id" : 102,
            "title" : "bulbasaur",
            "image" : "https://img.pokemondb.net/artwork/bulbasaur.jpg"
        },
        {
            "id" : 103,
            "title" : "abra",
            "image" : "https://img.pokemondb.net/artwork/abra.jpg"
        },
        {
            "id" : 104,
            "title" : "venonat",
            "image" : "https://img.pokemondb.net/artwork/venonat.jpg"
        },
        {
            "id" : 105,
            "title" : "Mew",
            "image" : "https://img.pokemondb.net/artwork/mew.jpg"
        },
        {
            "id" : 106,
            "title" : "lickitung",
            "image" : "https://img.pokemondb.net/artwork/lickitung.jpg"
        },
        {
            "id" : 107,
            "title" : "voltorb",
            "image" : "https://img.pokemondb.net/artwork/voltorb.jpg"
        },
        {
            "id" : 108,
            "title" : "kangaskhan",
            "image" : "https://img.pokemondb.net/artwork/kangaskhan.jpg"
        },
        {
            "id" : 109,
            "title" : "magmar",
            "image" : "https://img.pokemondb.net/artwork/magmar.jpg"
        },
        {
            "id" : 110,
            "title" : "vaporeon",
            "image" : "https://img.pokemondb.net/artwork/vaporeon.jpg"
        },
        {
            "id" : 111,
            "title" : "articuno",
            "image" : "https://img.pokemondb.net/artwork/articuno.jpg"
        },
        {
            "id" : 112,
            "title" : "snorlax",
            "image" : "https://img.pokemondb.net/artwork/snorlax.jpg"
        },
        {
            "id" : 113,
            "title" : "dratini",
            "image" : "https://img.pokemondb.net/artwork/dratini.jpg"
        },
        {
            "id" : 114,
            "title" : "lapras",
            "image" : "https://img.pokemondb.net/artwork/lapras.jpg"
        },
        {
            "id" : 115,
            "title" : "pinsir",
            "image" : "https://img.pokemondb.net/artwork/pinsir.jpg"
        },
        {
            "id" : 116,
            "title" : "jolteon",
            "image" : "https://img.pokemondb.net/artwork/jolteon.jpg"
        },
        {
            "id" : 117,
            "title" : "mewtwo",
            "image" : "https://img.pokemondb.net/artwork/mewtwo.jpg"
        },
        {
            "id" : 118,
            "title" : "rhyhorn",
            "image" : "https://img.pokemondb.net/artwork/rhyhorn.jpg"
        },
        {
            "id" : 119,
            "title" : "kadabra",
            "image" : "https://img.pokemondb.net/artwork/kadabra.jpg"
        },
        {
            "id" : 120,
            "title" : "arcanine",
            "image" : "https://img.pokemondb.net/artwork/arcanine.jpg"
        },
        {
            "id" : 121,
            "title" : "eevee",
            "image" : "https://img.pokemondb.net/artwork/eevee.jpg"
        }
    ]
}